{
    "dataset_path": "datasets-dryad/minecraft-med-inspectability/",
    "panda_problem_path": "datasets-dryad/minecraft-med-inspectability-hddl-files/",
    "output_filename": "minecraft_reliability_missing_run_1_0.25.csv",
    "problem_map": "datasets-dryad/json-hddl-minecraft-med-inspectability.json",
    "problem_files": "datasets-dryad/minecraft-med-inspectability-problem-files.txt",
    "elx_domain_file": "elexir/minecraft-med-inspectability.elx",
    "task_labels": ["obtain_pumpkin_pie", "obtain_bread", "obtain_potato", "obtain_chicken_meat", "obtain_beef", "obtain_cake"],
    "rng_seed": 1,
    "noise": 0.25,
    "noise_output_file": "datasets-dryad/minecraft-reliability-missing/minecraft_noise_missing_1_0.25.json",
    "noise_type": "missing"
}
